[gd_scene load_steps=4 format=3 uid="uid://bimp4cmpgqsqk"]

[ext_resource type="StyleBox" uid="uid://dsvarg745dujf" path="res://ui/cellmenu/item_bg.tres" id="1_2wqma"]
[ext_resource type="Script" path="res://ui/cellmenu/item_warning.gd" id="1_62i0j"]

[sub_resource type="StyleBoxFlat" id="StyleBoxFlat_i3iqk"]
bg_color = Color(0.454902, 0.184314, 0, 1)
corner_radius_top_left = 4
corner_radius_top_right = 4
corner_radius_bottom_right = 4
corner_radius_bottom_left = 4

[node name="Warning" type="Panel"]
custom_minimum_size = Vector2(0, 32)
anchors_preset = 15
anchor_right = 1.0
anchor_bottom = 1.0
grow_horizontal = 2
grow_vertical = 2
theme_override_styles/panel = ExtResource("1_2wqma")
script = ExtResource("1_62i0j")

[node name="Panel" type="Panel" parent="."]
layout_mode = 1
anchors_preset = 9
anchor_bottom = 1.0
offset_left = 8.0
offset_top = 4.0
offset_right = 32.0
offset_bottom = -4.0
grow_vertical = 2
theme_override_styles/panel = SubResource("StyleBoxFlat_i3iqk")

[node name="Pic" type="Label" parent="."]
layout_mode = 1
anchors_preset = -1
anchor_bottom = 1.0
offset_left = 8.0
offset_right = 32.0
grow_vertical = 2
text = "!"
horizontal_alignment = 1
vertical_alignment = 1

[node name="Label" type="Label" parent="."]
layout_mode = 1
anchors_preset = 15
anchor_right = 1.0
anchor_bottom = 1.0
offset_left = 40.0
grow_horizontal = 2
grow_vertical = 2
text = "Warning text"
vertical_alignment = 1
